{
  "images" : [
    {
      "idiom" : "universal",
      "filename" : "kisspng-computer-icons-export-international-trade-share-ic-data-export-icon-5ab0cd56371649.6335381815215363422257.png",
      "scale" : "1x"
    },
    {
      "idiom" : "universal",
      "filename" : "kisspng-computer-icons-export-international-trade-share-ic-data-export-icon-5ab0cd56371649.6335381815215363422257@2x.png",
      "scale" : "2x"
    },
    {
      "idiom" : "universal",
      "filename" : "kisspng-computer-icons-export-international-trade-share-ic-data-export-icon-5ab0cd56371649.6335381815215363422257@3x.png",
      "scale" : "3x"
    }
  ],
  "info" : {
    "version" : 1,
    "author" : "xcode"
  }
}